{
  "projectType": "application",
  "root": "apps/front",
  "sourceRoot": "apps/front/src",
  "prefix": "ademo",
  "targets": {
    "build": {
      "executor": "@angular-devkit/build-angular:browser",
      "outputs": ["{options.outputPath}"],
      "options": {
        "outputPath": "dist/apps/front",
        "index": "apps/front/src/index.html",
        "main": "apps/front/src/main.ts",
        "polyfills": "apps/front/src/polyfills.ts",
        "tsConfig": "apps/front/tsconfig.app.json",
        "inlineStyleLanguage": "scss",
        "assets": ["apps/front/src/favicon.ico", "apps/front/src/assets"],
        "styles": ["apps/front/src/styles.scss"],
        "scripts": []
      },
      "configurations": {
        "production": {
          "budgets": [
            {
              "type": "initial",
              "maximumWarning": "500kb",
              "maximumError": "1mb"
            },
            {
              "type": "anyComponentStyle",
              "maximumWarning": "2kb",
              "maximumError": "4kb"
            }
          ],
          "fileReplacements": [
            {
              "replace": "apps/front/src/environments/environment.ts",
              "with": "apps/front/src/environments/environment.prod.ts"
            }
          ],
          "outputHashing": "all"
        },
        "development": {
          "buildOptimizer": false,
          "optimization": false,
          "vendorChunk": true,
          "extractLicenses": false,
          "sourceMap": true,
          "namedChunks": true
        }
      },
      "defaultConfiguration": "production"
    },
    "serve": {
      "executor": "@angular-devkit/build-angular:dev-server",
      "configurations": {
        "production": {
          "browserTarget": "front:build:production"
        },
        "development": {
          "browserTarget": "front:build:development"
        }
      },
      "defaultConfiguration": "development",
      "options": {
        "proxyConfig": "apps/front/proxy.conf.json"
      }
    },
    "extract-i18n": {
      "executor": "@angular-devkit/build-angular:extract-i18n",
      "options": {
        "browserTarget": "front:build"
      }
    },
    "lint": {
      "executor": "@nrwl/linter:eslint",
      "options": {
        "lintFilePatterns": [
          "apps/front/src/**/*.ts",
          "apps/front/src/**/*.html"
        ]
      }
    },
    "test": {
      "executor": "@nrwl/jest:jest",
      "outputs": ["coverage/apps/front"],
      "options": {
        "jestConfig": "apps/front/jest.config.js",
        "passWithNoTests": true
      }
    }
  },
  "tags": []
}
